{"tracks": {"href": "https://api.spotify.com/v1/search?query=Horizon&type=track&market=US&offset=0&limit=1", "items": [{"album": {"album_type": "album", "artists": [{"external_urls": {"spotify": "https://open.spotify.com/artist/52NOvMXEjgf8MQl0qop2dl"}, "href": "https://api.spotify.com/v1/artists/52NOvMXEjgf8MQl0qop2dl", "id": "52NOvMXEjgf8MQl0qop2dl", "name": "Pigeons Playing Ping Pong", "type": "artist", "uri": "spotify:artist:52NOvMXEjgf8MQl0qop2dl"}], "external_urls": {"spotify": "https://open.spotify.com/album/27wYCoAJYIyymo5LIe6Jz8"}, "href": "https://api.spotify.com/v1/albums/27wYCoAJYIyymo5LIe6Jz8", "id": "27wYCoAJYIyymo5LIe6Jz8", "images": [{"height": 640, "url": "https://i.scdn.co/image/ab67616d0000b273453c76a540cbceedb48b2438", "width": 640}, {"height": 300, "url": "https://i.scdn.co/image/ab67616d00001e02453c76a540cbceedb48b2438", "width": 300}, {"height": 64, "url": "https://i.scdn.co/image/ab67616d00004851453c76a540cbceedb48b2438", "width": 64}], "name": "Psychology", "release_date": "2014-07-03", "release_date_precision": "day", "total_tracks": 13, "type": "album", "uri": "spotify:album:27wYCoAJYIyymo5LIe6Jz8"}, "artists": [{"external_urls": {"spotify": "https://open.spotify.com/artist/52NOvMXEjgf8MQl0qop2dl"}, "href": "https://api.spotify.com/v1/artists/52NOvMXEjgf8MQl0qop2dl", "id": "52NOvMXEjgf8MQl0qop2dl", "name": "Pigeons Playing Ping Pong", "type": "artist", "uri": "spotify:artist:52NOvMXEjgf8MQl0qop2dl"}], "disc_number": 1, "duration_ms": 575120, "explicit": false, "external_ids": {"isrc": "ushm21480350"}, "external_urls": {"spotify": "https://open.spotify.com/track/6YJNcusdf5adRMqJUaRjLt"}, "href": "https://api.spotify.com/v1/tracks/6YJNcusdf5adRMqJUaRjLt", "id": "6YJNcusdf5adRMqJUaRjLt", "is_local": false, "is_playable": true, "name": "Horizon", "popularity": 54, "preview_url": "https://p.scdn.co/mp3-preview/dc538ac52e8a89f34ba83b002a3e7ea9f4700a36?cid=31d676ad54d346b6bbcae46cfb7ce7a8", "track_number": 9, "type": "track", "uri": "spotify:track:6YJNcusdf5adRMqJUaRjLt"}], "limit": 1, "next": "https://api.spotify.com/v1/search?query=Horizon&type=track&market=US&offset=1&limit=1", "offset": 0, "previous": null, "total": 100001}}