{"tracks": {"href": "https://api.spotify.com/v1/search?query=sunset&type=track&market=US&offset=0&limit=10", "items": [{"album": {"album_type": "single", "artists": [{"external_urls": {"spotify": "https://open.spotify.com/artist/6gK1Uct5FEdaUWRWpU4Cl2"}, "href": "https://api.spotify.com/v1/artists/6gK1Uct5FEdaUWRWpU4Cl2", "id": "6gK1Uct5FEdaUWRWpU4Cl2", "name": "Petit Biscuit", "type": "artist", "uri": "spotify:artist:6gK1Uct5FEdaUWRWpU4Cl2"}], "external_urls": {"spotify": "https://open.spotify.com/album/4Ky2PpWb26OxNabAMffyBw"}, "href": "https://api.spotify.com/v1/albums/4Ky2PpWb26OxNabAMffyBw", "id": "4Ky2PpWb26OxNabAMffyBw", "images": [{"height": 640, "url": "https://i.scdn.co/image/ab67616d0000b273014080d39d56c94c0b285362", "width": 640}, {"height": 300, "url": "https://i.scdn.co/image/ab67616d00001e02014080d39d56c94c0b285362", "width": 300}, {"height": 64, "url": "https://i.scdn.co/image/ab67616d00004851014080d39d56c94c0b285362", "width": 64}], "name": "Sunset Lover", "release_date": "2015", "release_date_precision": "year", "total_tracks": 1, "type": "album", "uri": "spotify:album:4Ky2PpWb26OxNabAMffyBw"}, "artists": [{"external_urls": {"spotify": "https://open.spotify.com/artist/6gK1Uct5FEdaUWRWpU4Cl2"}, "href": "https://api.spotify.com/v1/artists/6gK1Uct5FEdaUWRWpU4Cl2", "id": "6gK1Uct5FEdaUWRWpU4Cl2", "name": "Petit Biscuit", "type": "artist", "uri": "spotify:artist:6gK1Uct5FEdaUWRWpU4Cl2"}], "disc_number": 1, "duration_ms": 237792, "explicit": false, "external_ids": {"isrc": "FRX451599796"}, "external_urls": {"spotify": "https://open.spotify.com/track/0hNduWmlWmEmuwEFcYvRu1"}, "href": "https://api.spotify.com/v1/tracks/0hNduWmlWmEmuwEFcYvRu1", "id": "0hNduWmlWmEmuwEFcYvRu1", "is_local": false, "is_playable": true, "name": "Sunset Lover", "popularity": 75, "preview_url": "https://p.scdn.co/mp3-preview/548545f6df276b92cafd8a29996021ae40e73d1d?cid=31d676ad54d346b6bbcae46cfb7ce7a8", "track_number": 1, "type": "track", "uri": "spotify:track:0hNduWmlWmEmuwEFcYvRu1"}, {"album": {"album_type": "album", "artists": [{"external_urls": {"spotify": "https://open.spotify.com/artist/1iNqsUDUraNWrj00bqssQG"}, "href": "https://api.spotify.com/v1/artists/1iNqsUDUraNWrj00bqssQG", "id": "1iNqsUDUraNWrj00bqssQG", "name": "Dreamville", "type": "artist", "uri": "spotify:artist:1iNqsUDUraNWrj00bqssQG"}, {"external_urls": {"spotify": "https://open.spotify.com/artist/6l3HvQ5sa6mXTsMTB19rO5"}, "href": "https://api.spotify.com/v1/artists/6l3HvQ5sa6mXTsMTB19rO5", "id": "6l3HvQ5sa6mXTsMTB19rO5", "name": "J. Cole", "type": "artist", "uri": "spotify:artist:6l3HvQ5sa6mXTsMTB19rO5"}], "external_urls": {"spotify": "https://open.spotify.com/album/2n3quCZ0anEa46j2IveacI"}, "href": "https://api.spotify.com/v1/albums/2n3quCZ0anEa46j2IveacI", "id": "2n3quCZ0anEa46j2IveacI", "images": [{"height": 640, "url": "https://i.scdn.co/image/ab67616d0000b273c0ae820e3b64854de4642101", "width": 640}, {"height": 300, "url": "https://i.scdn.co/image/ab67616d00001e02c0ae820e3b64854de4642101", "width": 300}, {"height": 64, "url": "https://i.scdn.co/image/ab67616d00004851c0ae820e3b64854de4642101", "width": 64}], "name": "Revenge Of The Dreamers III", "release_date": "2019-07-05", "release_date_precision": "day", "total_tracks": 18, "type": "album", "uri": "spotify:album:2n3quCZ0anEa46j2IveacI"}, "artists": [{"external_urls": {"spotify": "https://open.spotify.com/artist/1iNqsUDUraNWrj00bqssQG"}, "href": "https://api.spotify.com/v1/artists/1iNqsUDUraNWrj00bqssQG", "id": "1iNqsUDUraNWrj00bqssQG", "name": "Dreamville", "type": "artist", "uri": "spotify:artist:1iNqsUDUraNWrj00bqssQG"}, {"external_urls": {"spotify": "https://open.spotify.com/artist/6l3HvQ5sa6mXTsMTB19rO5"}, "href": "https://api.spotify.com/v1/artists/6l3HvQ5sa6mXTsMTB19rO5", "id": "6l3HvQ5sa6mXTsMTB19rO5", "name": "J. Cole", "type": "artist", "uri": "spotify:artist:6l3HvQ5sa6mXTsMTB19rO5"}, {"external_urls": {"spotify": "https://open.spotify.com/artist/5yPzzu25VzEk8qrGTLIrE1"}, "href": "https://api.spotify.com/v1/artists/5yPzzu25VzEk8qrGTLIrE1", "id": "5yPzzu25VzEk8qrGTLIrE1", "name": "Young Nudy", "type": "artist", "uri": "spotify:artist:5yPzzu25VzEk8qrGTLIrE1"}], "disc_number": 1, "duration_ms": 178373, "explicit": true, "external_ids": {"isrc": "USUM71912966"}, "external_urls": {"spotify": "https://open.spotify.com/track/3pZO6GoVPeSYDxxsH6vCdj"}, "href": "https://api.spotify.com/v1/tracks/3pZO6GoVPeSYDxxsH6vCdj", "id": "3pZO6GoVPeSYDxxsH6vCdj", "is_local": false, "is_playable": true, "name": "Sunset (with J. Cole feat. Young Nudy)", "popularity": 62, "preview_url": null, "track_number": 14, "type": "track", "uri": "spotify:track:3pZO6GoVPeSYDxxsH6vCdj"}, {"album": {"album_type": "album", "artists": [{"external_urls": {"spotify": "https://open.spotify.com/artist/3GBPw9NK25X1Wt2OUvOwY3"}, "href": "https://api.spotify.com/v1/artists/3GBPw9NK25X1Wt2OUvOwY3", "id": "3GBPw9NK25X1Wt2OUvOwY3", "name": "Jack Johnson", "type": "artist", "uri": "spotify:artist:3GBPw9NK25X1Wt2OUvOwY3"}], "external_urls": {"spotify": "https://open.spotify.com/album/1a15dDOiwz5ebSxk1ZeFB5"}, "href": "https://api.spotify.com/v1/albums/1a15dDOiwz5ebSxk1ZeFB5", "id": "1a15dDOiwz5ebSxk1ZeFB5", "images": [{"height": 640, "url": "https://i.scdn.co/image/ab67616d0000b2730501cb2692cca5c4889de1e4", "width": 640}, {"height": 300, "url": "https://i.scdn.co/image/ab67616d00001e020501cb2692cca5c4889de1e4", "width": 300}, {"height": 64, "url": "https://i.scdn.co/image/ab67616d000048510501cb2692cca5c4889de1e4", "width": 64}], "name": "All The Light Above It Too", "release_date": "2017-09-08", "release_date_precision": "day", "total_tracks": 10, "type": "album", "uri": "spotify:album:1a15dDOiwz5ebSxk1ZeFB5"}, "artists": [{"external_urls": {"spotify": "https://open.spotify.com/artist/3GBPw9NK25X1Wt2OUvOwY3"}, "href": "https://api.spotify.com/v1/artists/3GBPw9NK25X1Wt2OUvOwY3", "id": "3GBPw9NK25X1Wt2OUvOwY3", "name": "Jack Johnson", "type": "artist", "uri": "spotify:artist:3GBPw9NK25X1Wt2OUvOwY3"}], "disc_number": 1, "duration_ms": 210466, "explicit": false, "external_ids": {"isrc": "USUG11700823"}, "external_urls": {"spotify": "https://open.spotify.com/track/41Az1BCotlAUt7Ud8k6H2Y"}, "href": "https://api.spotify.com/v1/tracks/41Az1BCotlAUt7Ud8k6H2Y", "id": "41Az1BCotlAUt7Ud8k6H2Y", "is_local": false, "is_playable": true, "name": "Sunsets For Somebody Else", "popularity": 66, "preview_url": null, "track_number": 3, "type": "track", "uri": "spotify:track:41Az1BCotlAUt7Ud8k6H2Y"}, {"album": {"album_type": "compilation", "artists": [{"external_urls": {"spotify": "https://open.spotify.com/artist/0LyfQWJT6nXafLPZqxe9Of"}, "href": "https://api.spotify.com/v1/artists/0LyfQWJT6nXafLPZqxe9Of", "id": "0LyfQWJT6nXafLPZqxe9Of", "name": "Various Artists", "type": "artist", "uri": "spotify:artist:0LyfQWJT6nXafLPZqxe9Of"}], "external_urls": {"spotify": "https://open.spotify.com/album/0FBkB6e7deadNGBxQCpQc0"}, "href": "https://api.spotify.com/v1/albums/0FBkB6e7deadNGBxQCpQc0", "id": "0FBkB6e7deadNGBxQCpQc0", "images": [{"height": 640, "url": "https://i.scdn.co/image/e679a351b106693e32cdd9acd0abd3976110fbba", "width": 640}, {"height": 300, "url": "https://i.scdn.co/image/d4c770619ae206d59007756beab85217eb89ef37", "width": 300}, {"height": 64, "url": "https://i.scdn.co/image/fd52c9201ea0d1ebd75c7fd0ec374cf7db6d3fef", "width": 64}], "name": "Chillhop Essentials Spring 2019", "release_date": "2019-03-20", "release_date_precision": "day", "total_tracks": 25, "type": "album", "uri": "spotify:album:0FBkB6e7deadNGBxQCpQc0"}, "artists": [{"external_urls": {"spotify": "https://open.spotify.com/artist/45Ui3GdcxzbdJhhTtZLXO8"}, "href": "https://api.spotify.com/v1/artists/45Ui3GdcxzbdJhhTtZLXO8", "id": "45Ui3GdcxzbdJhhTtZLXO8", "name": "Aso", "type": "artist", "uri": "spotify:artist:45Ui3GdcxzbdJhhTtZLXO8"}], "disc_number": 1, "duration_ms": 177312, "explicit": false, "external_ids": {"isrc": "GBKQU1916703"}, "external_urls": {"spotify": "https://open.spotify.com/track/3EB629GKclrdBBMJStxs6y"}, "href": "https://api.spotify.com/v1/tracks/3EB629GKclrdBBMJStxs6y", "id": "3EB629GKclrdBBMJStxs6y", "is_local": false, "is_playable": true, "name": "Sunsets", "popularity": 60, "preview_url": "https://p.scdn.co/mp3-preview/184e85141d05f114adacf4a5db907cb6b238cfd0?cid=31d676ad54d346b6bbcae46cfb7ce7a8", "track_number": 6, "type": "track", "uri": "spotify:track:3EB629GKclrdBBMJStxs6y"}, {"album": {"album_type": "single", "artists": [{"external_urls": {"spotify": "https://open.spotify.com/artist/4z6yrDz5GfKXkeQZjOaZdq"}, "href": "https://api.spotify.com/v1/artists/4z6yrDz5GfKXkeQZjOaZdq", "id": "4z6yrDz5GfKXkeQZjOaZdq", "name": "Davichi", "type": "artist", "uri": "spotify:artist:4z6yrDz5GfKXkeQZjOaZdq"}], "external_urls": {"spotify": "https://open.spotify.com/album/7I8EhqokYSgC6vt9kISL6J"}, "href": "https://api.spotify.com/v1/albums/7I8EhqokYSgC6vt9kISL6J", "id": "7I8EhqokYSgC6vt9kISL6J", "images": [{"height": 640, "url": "https://i.scdn.co/image/ab67616d0000b273efc1753e210311d4f2ee02a9", "width": 640}, {"height": 300, "url": "https://i.scdn.co/image/ab67616d00001e02efc1753e210311d4f2ee02a9", "width": 300}, {"height": 64, "url": "https://i.scdn.co/image/ab67616d00004851efc1753e210311d4f2ee02a9", "width": 64}], "name": "Crash Landing on You (Original Television Soundtrack), Pt. 3", "release_date": "2019-12-29", "release_date_precision": "day", "total_tracks": 2, "type": "album", "uri": "spotify:album:7I8EhqokYSgC6vt9kISL6J"}, "artists": [{"external_urls": {"spotify": "https://open.spotify.com/artist/4z6yrDz5GfKXkeQZjOaZdq"}, "href": "https://api.spotify.com/v1/artists/4z6yrDz5GfKXkeQZjOaZdq", "id": "4z6yrDz5GfKXkeQZjOaZdq", "name": "Davichi", "type": "artist", "uri": "spotify:artist:4z6yrDz5GfKXkeQZjOaZdq"}], "disc_number": 1, "duration_ms": 216734, "explicit": false, "external_ids": {"isrc": "KRA491901246"}, "external_urls": {"spotify": "https://open.spotify.com/track/27srzsrTPJ2KiABGZ0rP5a"}, "href": "https://api.spotify.com/v1/tracks/27srzsrTPJ2KiABGZ0rP5a", "id": "27srzsrTPJ2KiABGZ0rP5a", "is_local": false, "is_playable": true, "name": "Sunset", "popularity": 69, "preview_url": "https://p.scdn.co/mp3-preview/89077b5d46d9a2a030e554271c656140543f54a4?cid=31d676ad54d346b6bbcae46cfb7ce7a8", "track_number": 1, "type": "track", "uri": "spotify:track:27srzsrTPJ2KiABGZ0rP5a"}, {"album": {"album_type": "album", "artists": [{"external_urls": {"spotify": "https://open.spotify.com/artist/1QAJqy2dA3ihHBFIHRphZj"}, "href": "https://api.spotify.com/v1/artists/1QAJqy2dA3ihHBFIHRphZj", "id": "1QAJqy2dA3ihHBFIHRphZj", "name": "Cigarettes After Sex", "type": "artist", "uri": "spotify:artist:1QAJqy2dA3ihHBFIHRphZj"}], "external_urls": {"spotify": "https://open.spotify.com/album/5bP82ZIls6rzhpf5Qu6AzC"}, "href": "https://api.spotify.com/v1/albums/5bP82ZIls6rzhpf5Qu6AzC", "id": "5bP82ZIls6rzhpf5Qu6AzC", "images": [{"height": 640, "url": "https://i.scdn.co/image/ab67616d0000b2736b701428ed4c6e053902174a", "width": 640}, {"height": 300, "url": "https://i.scdn.co/image/ab67616d00001e026b701428ed4c6e053902174a", "width": 300}, {"height": 64, "url": "https://i.scdn.co/image/ab67616d000048516b701428ed4c6e053902174a", "width": 64}], "name": "Cigarettes After Sex", "release_date": "2017-06-09", "release_date_precision": "day", "total_tracks": 10, "type": "album", "uri": "spotify:album:5bP82ZIls6rzhpf5Qu6AzC"}, "artists": [{"external_urls": {"spotify": "https://open.spotify.com/artist/1QAJqy2dA3ihHBFIHRphZj"}, "href": "https://api.spotify.com/v1/artists/1QAJqy2dA3ihHBFIHRphZj", "id": "1QAJqy2dA3ihHBFIHRphZj", "name": "Cigarettes After Sex", "type": "artist", "uri": "spotify:artist:1QAJqy2dA3ihHBFIHRphZj"}], "disc_number": 1, "duration_ms": 214680, "explicit": false, "external_ids": {"isrc": "USBQU1700033"}, "external_urls": {"spotify": "https://open.spotify.com/track/69UqtTHfUKAJweQwEStRzC"}, "href": "https://api.spotify.com/v1/tracks/69UqtTHfUKAJweQwEStRzC", "id": "69UqtTHfUKAJweQwEStRzC", "is_local": false, "is_playable": true, "name": "Sunsetz", "popularity": 53, "preview_url": "https://p.scdn.co/mp3-preview/d8f56b035504b6df074e7399e7566ae6a30e746c?cid=31d676ad54d346b6bbcae46cfb7ce7a8", "track_number": 3, "type": "track", "uri": "spotify:track:69UqtTHfUKAJweQwEStRzC"}, {"album": {"album_type": "album", "artists": [{"external_urls": {"spotify": "https://open.spotify.com/artist/2NFrAuh8RQdQoS7iYFbckw"}, "href": "https://api.spotify.com/v1/artists/2NFrAuh8RQdQoS7iYFbckw", "id": "2NFrAuh8RQdQoS7iYFbckw", "name": "The Midnight", "type": "artist", "uri": "spotify:artist:2NFrAuh8RQdQoS7iYFbckw"}], "external_urls": {"spotify": "https://open.spotify.com/album/4Krg8zvprquh7TVn9OxZn8"}, "href": "https://api.spotify.com/v1/albums/4Krg8zvprquh7TVn9OxZn8", "id": "4Krg8zvprquh7TVn9OxZn8", "images": [{"height": 640, "url": "https://i.scdn.co/image/ab67616d0000b2737312307236c396ec217a0978", "width": 640}, {"height": 300, "url": "https://i.scdn.co/image/ab67616d00001e027312307236c396ec217a0978", "width": 300}, {"height": 64, "url": "https://i.scdn.co/image/ab67616d000048517312307236c396ec217a0978", "width": 64}], "name": "Endless Summer", "release_date": "2016-08-01", "release_date_precision": "day", "total_tracks": 12, "type": "album", "uri": "spotify:album:4Krg8zvprquh7TVn9OxZn8"}, "artists": [{"external_urls": {"spotify": "https://open.spotify.com/artist/2NFrAuh8RQdQoS7iYFbckw"}, "href": "https://api.spotify.com/v1/artists/2NFrAuh8RQdQoS7iYFbckw", "id": "2NFrAuh8RQdQoS7iYFbckw", "name": "The Midnight", "type": "artist", "uri": "spotify:artist:2NFrAuh8RQdQoS7iYFbckw"}], "disc_number": 1, "duration_ms": 326520, "explicit": false, "external_ids": {"isrc": "TCACQ1690552"}, "external_urls": {"spotify": "https://open.spotify.com/track/4PMmwowVLOajPdiKnrU1vK"}, "href": "https://api.spotify.com/v1/tracks/4PMmwowVLOajPdiKnrU1vK", "id": "4PMmwowVLOajPdiKnrU1vK", "is_local": false, "is_playable": true, "name": "Sunset", "popularity": 57, "preview_url": "https://p.scdn.co/mp3-preview/7fa95248d2d02569f0fdc47030d8b6ffb2476bdb?cid=31d676ad54d346b6bbcae46cfb7ce7a8", "track_number": 2, "type": "track", "uri": "spotify:track:4PMmwowVLOajPdiKnrU1vK"}, {"album": {"album_type": "single", "artists": [{"external_urls": {"spotify": "https://open.spotify.com/artist/0GG2cWaonE4JPrjcCCQ1EG"}, "href": "https://api.spotify.com/v1/artists/0GG2cWaonE4JPrjcCCQ1EG", "id": "0GG2cWaonE4JPrjcCCQ1EG", "name": "SG Lewis", "type": "artist", "uri": "spotify:artist:0GG2cWaonE4JPrjcCCQ1EG"}], "external_urls": {"spotify": "https://open.spotify.com/album/2gwNU1WsZEOcCSyKHsXKs5"}, "href": "https://api.spotify.com/v1/albums/2gwNU1WsZEOcCSyKHsXKs5", "id": "2gwNU1WsZEOcCSyKHsXKs5", "images": [{"height": 640, "url": "https://i.scdn.co/image/ab67616d0000b2737a57c79de5138d173331183d", "width": 640}, {"height": 300, "url": "https://i.scdn.co/image/ab67616d00001e027a57c79de5138d173331183d", "width": 300}, {"height": 64, "url": "https://i.scdn.co/image/ab67616d000048517a57c79de5138d173331183d", "width": 64}], "name": "Dusk", "release_date": "2018-04-06", "release_date_precision": "day", "total_tracks": 6, "type": "album", "uri": "spotify:album:2gwNU1WsZEOcCSyKHsXKs5"}, "artists": [{"external_urls": {"spotify": "https://open.spotify.com/artist/0GG2cWaonE4JPrjcCCQ1EG"}, "href": "https://api.spotify.com/v1/artists/0GG2cWaonE4JPrjcCCQ1EG", "id": "0GG2cWaonE4JPrjcCCQ1EG", "name": "SG Lewis", "type": "artist", "uri": "spotify:artist:0GG2cWaonE4JPrjcCCQ1EG"}], "disc_number": 1, "duration_ms": 216497, "explicit": false, "external_ids": {"isrc": "GBUM71800477"}, "external_urls": {"spotify": "https://open.spotify.com/track/6oKeVXkFW8W91cyoWVgRHE"}, "href": "https://api.spotify.com/v1/tracks/6oKeVXkFW8W91cyoWVgRHE", "id": "6oKeVXkFW8W91cyoWVgRHE", "is_local": false, "is_playable": true, "name": "Sunsets - Pt. 2", "popularity": 58, "preview_url": null, "track_number": 2, "type": "track", "uri": "spotify:track:6oKeVXkFW8W91cyoWVgRHE"}, {"album": {"album_type": "single", "artists": [{"external_urls": {"spotify": "https://open.spotify.com/artist/4smeBjKru2y3oeQkGSfotv"}, "href": "https://api.spotify.com/v1/artists/4smeBjKru2y3oeQkGSfotv", "id": "4smeBjKru2y3oeQkGSfotv", "name": "7apes", "type": "artist", "uri": "spotify:artist:4smeBjKru2y3oeQkGSfotv"}], "external_urls": {"spotify": "https://open.spotify.com/album/0JkqkDXmAOTihmfJ6Ntq25"}, "href": "https://api.spotify.com/v1/albums/0JkqkDXmAOTihmfJ6Ntq25", "id": "0JkqkDXmAOTihmfJ6Ntq25", "images": [{"height": 640, "url": "https://i.scdn.co/image/ab67616d0000b27319c58574bc1dfd52e8f4282d", "width": 640}, {"height": 300, "url": "https://i.scdn.co/image/ab67616d00001e0219c58574bc1dfd52e8f4282d", "width": 300}, {"height": 64, "url": "https://i.scdn.co/image/ab67616d0000485119c58574bc1dfd52e8f4282d", "width": 64}], "name": "Sunset Blvd", "release_date": "2018-08-19", "release_date_precision": "day", "total_tracks": 1, "type": "album", "uri": "spotify:album:0JkqkDXmAOTihmfJ6Ntq25"}, "artists": [{"external_urls": {"spotify": "https://open.spotify.com/artist/4smeBjKru2y3oeQkGSfotv"}, "href": "https://api.spotify.com/v1/artists/4smeBjKru2y3oeQkGSfotv", "id": "4smeBjKru2y3oeQkGSfotv", "name": "7apes", "type": "artist", "uri": "spotify:artist:4smeBjKru2y3oeQkGSfotv"}], "disc_number": 1, "duration_ms": 196363, "explicit": false, "external_ids": {"isrc": "QM6MZ1891254"}, "external_urls": {"spotify": "https://open.spotify.com/track/2VhbfT4qyB4KFhVEDplXxX"}, "href": "https://api.spotify.com/v1/tracks/2VhbfT4qyB4KFhVEDplXxX", "id": "2VhbfT4qyB4KFhVEDplXxX", "is_local": false, "is_playable": true, "name": "Sunset Blvd", "popularity": 58, "preview_url": null, "track_number": 1, "type": "track", "uri": "spotify:track:2VhbfT4qyB4KFhVEDplXxX"}, {"album": {"album_type": "album", "artists": [{"external_urls": {"spotify": "https://open.spotify.com/artist/41Q0HrwWBtuUkJc7C1Rp6K"}, "href": "https://api.spotify.com/v1/artists/41Q0HrwWBtuUkJc7C1Rp6K", "id": "41Q0HrwWBtuUkJc7C1Rp6K", "name": "311", "type": "artist", "uri": "spotify:artist:41Q0HrwWBtuUkJc7C1Rp6K"}], "external_urls": {"spotify": "https://open.spotify.com/album/45H7sTAuALcaEGnktvygP5"}, "href": "https://api.spotify.com/v1/albums/45H7sTAuALcaEGnktvygP5", "id": "45H7sTAuALcaEGnktvygP5", "images": [{"height": 640, "url": "https://i.scdn.co/image/ab67616d0000b2732be5eab59472a78577b906ca", "width": 640}, {"height": 300, "url": "https://i.scdn.co/image/ab67616d00001e022be5eab59472a78577b906ca", "width": 300}, {"height": 64, "url": "https://i.scdn.co/image/ab67616d000048512be5eab59472a78577b906ca", "width": 64}], "name": "Universal Pulse", "release_date": "2011-07-19", "release_date_precision": "day", "total_tracks": 8, "type": "album", "uri": "spotify:album:45H7sTAuALcaEGnktvygP5"}, "artists": [{"external_urls": {"spotify": "https://open.spotify.com/artist/41Q0HrwWBtuUkJc7C1Rp6K"}, "href": "https://api.spotify.com/v1/artists/41Q0HrwWBtuUkJc7C1Rp6K", "id": "41Q0HrwWBtuUkJc7C1Rp6K", "name": "311", "type": "artist", "uri": "spotify:artist:41Q0HrwWBtuUkJc7C1Rp6K"}], "disc_number": 1, "duration_ms": 236413, "explicit": false, "external_ids": {"isrc": "USATO1100123"}, "external_urls": {"spotify": "https://open.spotify.com/track/0DaXPLskMeTu01eqx7Di1i"}, "href": "https://api.spotify.com/v1/tracks/0DaXPLskMeTu01eqx7Di1i", "id": "0DaXPLskMeTu01eqx7Di1i", "is_local": false, "is_playable": true, "name": "Sunset in July", "popularity": 50, "preview_url": "https://p.scdn.co/mp3-preview/22178dc401caa29250b21a29657d8fa61c802f95?cid=31d676ad54d346b6bbcae46cfb7ce7a8", "track_number": 3, "type": "track", "uri": "spotify:track:0DaXPLskMeTu01eqx7Di1i"}], "limit": 10, "next": "https://api.spotify.com/v1/search?query=sunset&type=track&market=US&offset=10&limit=10", "offset": 0, "previous": null, "total": 100010}}