{"tracks": {"href": "https://api.spotify.com/v1/search?query=Calm&type=track&market=US&offset=0&limit=1", "items": [{"album": {"album_type": "single", "artists": [{"external_urls": {"spotify": "https://open.spotify.com/artist/3zG3fwEK20npYHIYooztq9"}, "href": "https://api.spotify.com/v1/artists/3zG3fwEK20npYHIYooztq9", "id": "3zG3fwEK20npYHIYooztq9", "name": "Microdynamic Recordings", "type": "artist", "uri": "spotify:artist:3zG3fwEK20npYHIYooztq9"}], "external_urls": {"spotify": "https://open.spotify.com/album/0XYTjI6bP5Wh1bLsUIRBtW"}, "href": "https://api.spotify.com/v1/albums/0XYTjI6bP5Wh1bLsUIRBtW", "id": "0XYTjI6bP5Wh1bLsUIRBtW", "images": [{"height": 640, "url": "https://i.scdn.co/image/ab67616d0000b273e29d1e5cf241882d83ce7763", "width": 640}, {"height": 300, "url": "https://i.scdn.co/image/ab67616d00001e02e29d1e5cf241882d83ce7763", "width": 300}, {"height": 64, "url": "https://i.scdn.co/image/ab67616d00004851e29d1e5cf241882d83ce7763", "width": 64}], "name": "Misty Rain", "release_date": "2019-10-07", "release_date_precision": "day", "total_tracks": 3, "type": "album", "uri": "spotify:album:0XYTjI6bP5Wh1bLsUIRBtW"}, "artists": [{"external_urls": {"spotify": "https://open.spotify.com/artist/3zG3fwEK20npYHIYooztq9"}, "href": "https://api.spotify.com/v1/artists/3zG3fwEK20npYHIYooztq9", "id": "3zG3fwEK20npYHIYooztq9", "name": "Microdynamic Recordings", "type": "artist", "uri": "spotify:artist:3zG3fwEK20npYHIYooztq9"}], "disc_number": 1, "duration_ms": 143583, "explicit": false, "external_ids": {"isrc": "SE5IB1901185"}, "external_urls": {"spotify": "https://open.spotify.com/track/1RXXLvEKXmz2c6TG1EDUz2"}, "href": "https://api.spotify.com/v1/tracks/1RXXLvEKXmz2c6TG1EDUz2", "id": "1RXXLvEKXmz2c6TG1EDUz2", "is_local": false, "is_playable": true, "name": "Calm Pour", "popularity": 77, "preview_url": "https://p.scdn.co/mp3-preview/5e09ea01db05145c0af97f187af02d94156cb588?cid=3b727d6d1e5440b381204da4ebd1d5d4", "track_number": 3, "type": "track", "uri": "spotify:track:1RXXLvEKXmz2c6TG1EDUz2"}], "limit": 1, "next": "https://api.spotify.com/v1/search?query=Calm&type=track&market=US&offset=1&limit=1", "offset": 0, "previous": null, "total": 100001}}